{
	"title" :
		{
			"text" : "Sight Words 3",
			"speak" : "Sight Words 3"
		},

	"contents" : [
		{
			"text" : ["not", "of", "on", "said", "see"],
			"speak" : ["not", "of", "on", "said", "see"]
		},
		{
			"text" : ["she", "so", "the", "to", "up"],
			"speak" : ["she", "so", "the", "to", "up"]
		},
		{
			"text" : ["was", "we", "what", "will", "yes", "you"],
			"speak" : ["was", "we", "what", "will", "yes", "you"]
		}
	]
}
